Lesson 4B: Continuous Distributions
…
What is the maximum likelihood for \(\mu\) and \(\sigma\)?

resNorm_df %>% 
    arrange(desc(Likelihood))

# A tibble: 20,001 × 3
       X     Y  Likelihood
   <dbl> <dbl>       <dbl>
 1     5  11.0       -13.0
 2     6  11.0   -408147. 
 3     4  11.0   -417576. 
 4     7  11.0  -1641528. 
 5     3  11.0  -1661287. 
 6     8  11.0  -3699706. 
 7     2  11.0  -3731596. 
 8     9  11.0  -6582232. 
 9     1  11.0  -6628954. 
10    10  11.0 -10288656. 
# … with 19,991 more rows
…
