Lesson 3A: Discrete Distributions
…
What is the maximum likelihood for \(p\)?

resBern_df %>% 
    arrange(desc(Likelihood))

# A tibble: 101 × 2
       X Likelihood
   <dbl>      <dbl>
 1  0.53  6.67e-151
 2  0.52  6.28e-151
 3  0.54  5.79e-151
 4  0.51  4.84e-151
 5  0.55  4.11e-151
 6  0.5   3.05e-151
 7  0.56  2.38e-151
 8  0.49  1.58e-151
 9  0.57  1.12e-151
10  0.48  6.68e-152
# … with 91 more rows
…
