Lesson 3B: Discrete Distributions
…
What is the maximum likelihood for \(\lambda\)?

resPois_df %>% 
    arrange(desc(Likelihood))

# A tibble: 500 × 2
       X Likelihood
   <dbl>      <dbl>
 1   9.9    -25482.
 2   9.8    -25486.
 3  10      -25489.
 4   9.7    -25500.
 5  10.1    -25505.
 6   9.6    -25525.
 7  10.2    -25531.
 8   9.5    -25560.
 9  10.3    -25567.
10   9.4    -25606.
# … with 490 more rows
…
